<?xml version="1.0" encoding="UTF-8" standalone="no"?>
<!-- Created with Inkscape (http://www.inkscape.org/) -->

<svg
   xmlns:dc="http://purl.org/dc/elements/1.1/"
   xmlns:cc="http://creativecommons.org/ns#"
   xmlns:rdf="http://www.w3.org/1999/02/22-rdf-syntax-ns#"
   xmlns:svg="http://www.w3.org/2000/svg"
   xmlns="http://www.w3.org/2000/svg"
   xmlns:sodipodi="http://sodipodi.sourceforge.net/DTD/sodipodi-0.dtd"
   xmlns:inkscape="http://www.inkscape.org/namespaces/inkscape"
   width="210mm"
   height="297mm"
   viewBox="0 0 210 297"
   version="1.1"
   id="svg8"
   sodipodi:docname="shear_reinforcement.svg"
   inkscape:version="0.92.4 5da689c313, 2019-01-14">
  <defs
     id="defs2">
    <marker
       inkscape:stockid="StopL"
       orient="auto"
       refY="0.0"
       refX="0.0"
       id="marker8473"
       style="overflow:visible"
       inkscape:isstock="true">
      <path
         id="path8471"
         d="M 0.0,5.65 L 0.0,-5.65"
         style="fill:none;fill-opacity:0.75;fill-rule:evenodd;stroke:#2b3b3a;stroke-width:1pt;stroke-opacity:1"
         transform="scale(0.8)" />
    </marker>
    <marker
       inkscape:stockid="StopL"
       orient="auto"
       refY="0.0"
       refX="0.0"
       id="marker8391"
       style="overflow:visible"
       inkscape:isstock="true">
      <path
         id="path8389"
         d="M 0.0,5.65 L 0.0,-5.65"
         style="fill:none;fill-opacity:0.75;fill-rule:evenodd;stroke:#2b3b3a;stroke-width:1pt;stroke-opacity:1"
         transform="scale(0.8)" />
    </marker>
    <marker
       inkscape:stockid="StopL"
       orient="auto"
       refY="0.0"
       refX="0.0"
       id="marker5088"
       style="overflow:visible"
       inkscape:isstock="true">
      <path
         id="path5086"
         d="M 0.0,5.65 L 0.0,-5.65"
         style="fill:none;fill-opacity:0.75;fill-rule:evenodd;stroke:#2b3b3a;stroke-width:1pt;stroke-opacity:1"
         transform="scale(0.8)" />
    </marker>
    <marker
       inkscape:stockid="StopL"
       orient="auto"
       refY="0.0"
       refX="0.0"
       id="StopL"
       style="overflow:visible"
       inkscape:isstock="true">
      <path
         id="path4841"
         d="M 0.0,5.65 L 0.0,-5.65"
         style="fill:none;fill-opacity:0.75;fill-rule:evenodd;stroke:#2b3b3a;stroke-width:1pt;stroke-opacity:1"
         transform="scale(0.8)" />
    </marker>
    <marker
       inkscape:stockid="Arrow1Lstart"
       orient="auto"
       refY="0.0"
       refX="0.0"
       id="Arrow1Lstart"
       style="overflow:visible"
       inkscape:isstock="true">
      <path
         id="path4672"
         d="M 0.0,0.0 L 5.0,-5.0 L -12.5,0.0 L 5.0,5.0 L 0.0,0.0 z "
         style="fill-rule:evenodd;stroke:#000000;stroke-width:1pt;stroke-opacity:1;fill:#000000;fill-opacity:1"
         transform="scale(0.8) translate(12.5,0)" />
    </marker>
    <marker
       inkscape:stockid="Arrow1Lend"
       orient="auto"
       refY="0.0"
       refX="0.0"
       id="marker4958"
       style="overflow:visible;"
       inkscape:isstock="true">
      <path
         id="path4956"
         d="M 0.0,0.0 L 5.0,-5.0 L -12.5,0.0 L 5.0,5.0 L 0.0,0.0 z "
         style="fill-rule:evenodd;stroke:#000000;stroke-width:1.0pt;"
         transform="scale(0.8) rotate(180) translate(12.5,0)" />
    </marker>
    <marker
       inkscape:stockid="Arrow1Lend"
       orient="auto"
       refY="0.0"
       refX="0.0"
       id="Arrow1Lend"
       style="overflow:visible;"
       inkscape:isstock="true">
      <path
         id="path4675"
         d="M 0.0,0.0 L 5.0,-5.0 L -12.5,0.0 L 5.0,5.0 L 0.0,0.0 z "
         style="fill-rule:evenodd;stroke:#000000;stroke-width:1pt;stroke-opacity:1;fill:#000000;fill-opacity:1"
         transform="scale(0.8) rotate(180) translate(12.5,0)" />
    </marker>
    <marker
       inkscape:stockid="ExperimentalArrow"
       orient="auto-start-reverse"
       refY="3.0"
       refX="5.0"
       id="ExperimentalArrow"
       inkscape:isstock="true">
      <path
         id="path4925"
         d="m 10,3 -10,3 0,-6 z"
         style="fill:context-stroke" />
    </marker>
    <marker
       inkscape:stockid="StopL"
       orient="auto"
       refY="0"
       refX="0"
       id="marker5088-3"
       style="overflow:visible"
       inkscape:isstock="true">
      <path
         inkscape:connector-curvature="0"
         id="path5086-6"
         d="M 0,5.65 V -5.65"
         style="fill:none;fill-opacity:0.75;fill-rule:evenodd;stroke:#2b3b3a;stroke-width:1.00000003pt;stroke-opacity:1"
         transform="scale(0.8)" />
    </marker>
    <marker
       inkscape:stockid="StopL"
       orient="auto"
       refY="0"
       refX="0"
       id="StopL-7"
       style="overflow:visible"
       inkscape:isstock="true">
      <path
         inkscape:connector-curvature="0"
         id="path4841-5"
         d="M 0,5.65 V -5.65"
         style="fill:none;fill-opacity:0.75;fill-rule:evenodd;stroke:#2b3b3a;stroke-width:1.00000003pt;stroke-opacity:1"
         transform="scale(0.8)" />
    </marker>
    <marker
       inkscape:stockid="StopL"
       orient="auto"
       refY="0"
       refX="0"
       id="marker5088-3-2"
       style="overflow:visible"
       inkscape:isstock="true">
      <path
         inkscape:connector-curvature="0"
         id="path5086-6-9"
         d="M 0,5.65 V -5.65"
         style="fill:none;fill-opacity:0.75;fill-rule:evenodd;stroke:#2b3b3a;stroke-width:1.00000003pt;stroke-opacity:1"
         transform="scale(0.8)" />
    </marker>
    <marker
       inkscape:stockid="StopL"
       orient="auto"
       refY="0"
       refX="0"
       id="StopL-7-1"
       style="overflow:visible"
       inkscape:isstock="true">
      <path
         inkscape:connector-curvature="0"
         id="path4841-5-2"
         d="M 0,5.65 V -5.65"
         style="fill:none;fill-opacity:0.75;fill-rule:evenodd;stroke:#2b3b3a;stroke-width:1.00000003pt;stroke-opacity:1"
         transform="scale(0.8)" />
    </marker>
    <marker
       inkscape:stockid="StopL"
       orient="auto"
       refY="0"
       refX="0"
       id="marker5088-6"
       style="overflow:visible"
       inkscape:isstock="true">
      <path
         inkscape:connector-curvature="0"
         id="path5086-7"
         d="M 0,5.65 V -5.65"
         style="fill:none;fill-opacity:0.75;fill-rule:evenodd;stroke:#2b3b3a;stroke-width:1.00000003pt;stroke-opacity:1"
         transform="scale(0.8)" />
    </marker>
    <marker
       inkscape:stockid="StopL"
       orient="auto"
       refY="0"
       refX="0"
       id="StopL-5"
       style="overflow:visible"
       inkscape:isstock="true">
      <path
         inkscape:connector-curvature="0"
         id="path4841-3"
         d="M 0,5.65 V -5.65"
         style="fill:none;fill-opacity:0.75;fill-rule:evenodd;stroke:#2b3b3a;stroke-width:1.00000003pt;stroke-opacity:1"
         transform="scale(0.8)" />
    </marker>
    <marker
       inkscape:stockid="StopL"
       orient="auto"
       refY="0"
       refX="0"
       id="marker5088-1"
       style="overflow:visible"
       inkscape:isstock="true">
      <path
         inkscape:connector-curvature="0"
         id="path5086-2"
         d="M 0,5.65 V -5.65"
         style="fill:none;fill-opacity:0.75;fill-rule:evenodd;stroke:#2b3b3a;stroke-width:1.00000003pt;stroke-opacity:1"
         transform="scale(0.8)" />
    </marker>
    <marker
       inkscape:stockid="StopL"
       orient="auto"
       refY="0"
       refX="0"
       id="StopL-70"
       style="overflow:visible"
       inkscape:isstock="true">
      <path
         inkscape:connector-curvature="0"
         id="path4841-9"
         d="M 0,5.65 V -5.65"
         style="fill:none;fill-opacity:0.75;fill-rule:evenodd;stroke:#2b3b3a;stroke-width:1.00000003pt;stroke-opacity:1"
         transform="scale(0.8)" />
    </marker>
  </defs>
  <sodipodi:namedview
     id="base"
     pagecolor="#ffffff"
     bordercolor="#666666"
     borderopacity="1.0"
     inkscape:pageopacity="0.0"
     inkscape:pageshadow="2"
     inkscape:zoom="0.47055398"
     inkscape:cx="-527.67103"
     inkscape:cy="820.30895"
     inkscape:document-units="mm"
     inkscape:current-layer="layer1"
     showgrid="false"
     showguides="true"
     inkscape:guide-bbox="true"
     inkscape:window-width="1680"
     inkscape:window-height="986"
     inkscape:window-x="1600"
     inkscape:window-y="27"
     inkscape:window-maximized="1"
     inkscape:measure-start="-1255.41,1572.07"
     inkscape:measure-end="-1247.13,1577.76"
     showborder="false"
     inkscape:snap-global="false" />
  <metadata
     id="metadata5">
    <rdf:RDF>
      <cc:Work
         rdf:about="">
        <dc:format>image/svg+xml</dc:format>
        <dc:type
           rdf:resource="http://purl.org/dc/dcmitype/StillImage" />
        <dc:title />
      </cc:Work>
    </rdf:RDF>
  </metadata>
  <g
     inkscape:label="Layer 1"
     inkscape:groupmode="layer"
     id="layer1">
    <rect
       ry="0"
       y="-127.02975"
       x="-370.37436"
       height="121.9"
       width="30.531439"
       id="rect817"
       style="opacity:1;fill:none;fill-opacity:1;stroke:#1aff00;stroke-width:1.68032801;stroke-linecap:square;stroke-linejoin:miter;stroke-miterlimit:4;stroke-dasharray:none;stroke-dashoffset:0;stroke-opacity:1"
       inkscape:export-xdpi="299.97321"
       inkscape:export-ydpi="299.97321" />
    <rect
       style="opacity:1;fill:#1a1a1a;fill-opacity:1;stroke:#1a0000;stroke-width:1.32291663;stroke-linecap:square;stroke-linejoin:miter;stroke-miterlimit:4;stroke-dasharray:none;stroke-dashoffset:0;stroke-opacity:1"
       id="rect2295"
       width="25.657866"
       height="0.63365978"
       x="-367.93756"
       y="-120.22578"
       inkscape:export-xdpi="299.97321"
       inkscape:export-ydpi="299.97321" />
    <rect
       y="-105.52595"
       x="-367.93756"
       height="0.63365978"
       width="25.657866"
       id="rect2297"
       style="opacity:1;fill:#1a1a1a;fill-opacity:1;stroke:#1a0000;stroke-width:1.32291663;stroke-linecap:square;stroke-linejoin:miter;stroke-miterlimit:4;stroke-dasharray:none;stroke-dashoffset:0;stroke-opacity:1"
       inkscape:export-xdpi="299.97321"
       inkscape:export-ydpi="299.97321" />
    <circle
       style="opacity:1;fill:#1a1a1a;fill-opacity:1;stroke:none;stroke-width:1.773;stroke-linecap:square;stroke-linejoin:miter;stroke-miterlimit:4;stroke-dasharray:none;stroke-dashoffset:0;stroke-opacity:1"
       id="path2299"
       cx="-355.10864"
       cy="-94.166992"
       r="0.93544334"
       inkscape:export-xdpi="299.97321"
       inkscape:export-ydpi="299.97321" />
    <circle
       r="0.93544334"
       cy="-83.743484"
       cx="-355.10864"
       id="circle2301"
       style="opacity:1;fill:#1a1a1a;fill-opacity:1;stroke:none;stroke-width:1.773;stroke-linecap:square;stroke-linejoin:miter;stroke-miterlimit:4;stroke-dasharray:none;stroke-dashoffset:0;stroke-opacity:1"
       inkscape:export-xdpi="299.97321"
       inkscape:export-ydpi="299.97321" />
    <circle
       style="opacity:1;fill:#000000;fill-opacity:1;stroke:none;stroke-width:1.773;stroke-linecap:square;stroke-linejoin:miter;stroke-miterlimit:4;stroke-dasharray:none;stroke-dashoffset:0;stroke-opacity:1"
       id="circle2305"
       cx="-355.10864"
       cy="-73.320648"
       r="0.93544334"
       inkscape:export-xdpi="299.97321"
       inkscape:export-ydpi="299.97321" />
    <rect
       style="opacity:1;fill:none;fill-opacity:1;stroke:#1aff00;stroke-width:1.68032801;stroke-linecap:square;stroke-linejoin:miter;stroke-miterlimit:4;stroke-dasharray:none;stroke-dashoffset:0;stroke-opacity:1"
       id="rect2340"
       width="30.531439"
       height="121.9"
       x="-370.37436"
       y="125.71455"
       ry="0"
       inkscape:export-xdpi="299.97321"
       inkscape:export-ydpi="299.97321" />
    <rect
       style="opacity:1;fill:none;fill-opacity:1;stroke:#1aff00;stroke-width:1.68148434;stroke-linecap:square;stroke-linejoin:miter;stroke-miterlimit:4;stroke-dasharray:none;stroke-dashoffset:0;stroke-opacity:1"
       id="rect2342"
       width="61.996822"
       height="121.89884"
       x="29.293997"
       y="185.26846"
       ry="0"
       transform="rotate(90)"
       inkscape:export-xdpi="299.97321"
       inkscape:export-ydpi="299.97321" />
    <rect
       y="192.07188"
       x="32.060947"
       height="0.63366699"
       width="56.462925"
       id="rect2344"
       style="opacity:1;fill:#1a1a1a;fill-opacity:1;stroke:#1a0000;stroke-width:1.32291663;stroke-linecap:square;stroke-linejoin:miter;stroke-miterlimit:4;stroke-dasharray:none;stroke-dashoffset:0;stroke-opacity:1"
       transform="rotate(90)"
       inkscape:export-xdpi="299.97321"
       inkscape:export-ydpi="299.97321" />
    <circle
       r="0.93544334"
       cy="218.13066"
       cx="60.292397"
       id="circle2348"
       style="opacity:1;fill:#1a1a1a;fill-opacity:1;stroke:none;stroke-width:1.773;stroke-linecap:square;stroke-linejoin:miter;stroke-miterlimit:4;stroke-dasharray:none;stroke-dashoffset:0;stroke-opacity:1"
       transform="rotate(90)"
       inkscape:export-xdpi="299.97321"
       inkscape:export-ydpi="299.97321" />
    <circle
       style="opacity:1;fill:#1a1a1a;fill-opacity:1;stroke:none;stroke-width:1.773;stroke-linecap:square;stroke-linejoin:miter;stroke-miterlimit:4;stroke-dasharray:none;stroke-dashoffset:0;stroke-opacity:1"
       id="circle2350"
       cx="60.292397"
       cy="228.55415"
       r="0.93544334"
       transform="rotate(90)"
       inkscape:export-xdpi="299.97321"
       inkscape:export-ydpi="299.97321" />
    <circle
       r="0.93544334"
       cy="238.97701"
       cx="60.292397"
       id="circle2352"
       style="opacity:1;fill:#000000;fill-opacity:1;stroke:none;stroke-width:1.773;stroke-linecap:square;stroke-linejoin:miter;stroke-miterlimit:4;stroke-dasharray:none;stroke-dashoffset:0;stroke-opacity:1"
       transform="rotate(90)"
       inkscape:export-xdpi="299.97321"
       inkscape:export-ydpi="299.97321" />
    <rect
       transform="matrix(0,1,1,0,0,0)"
       ry="0"
       y="-524.94879"
       x="29.293997"
       height="121.89883"
       width="61.996822"
       id="rect2354"
       style="opacity:1;fill:none;fill-opacity:1;stroke:#1aff00;stroke-width:1.68148434;stroke-linecap:square;stroke-linejoin:miter;stroke-miterlimit:4;stroke-dasharray:none;stroke-dashoffset:0;stroke-opacity:1"
       inkscape:export-xdpi="299.97321"
       inkscape:export-ydpi="299.97321" />
    <rect
       transform="rotate(90)"
       style="opacity:1;fill:#1a1a1a;fill-opacity:1;stroke:#1a0000;stroke-width:1.32291663;stroke-linecap:square;stroke-linejoin:miter;stroke-miterlimit:4;stroke-dasharray:none;stroke-dashoffset:0;stroke-opacity:1"
       id="rect2370"
       width="56.462925"
       height="0.63366699"
       x="32.060947"
       y="206.76971"
       inkscape:export-xdpi="299.97321"
       inkscape:export-ydpi="299.97321" />
    <rect
       y="330.96161"
       x="-125.38796"
       height="0.20843656"
       width="25.657866"
       id="rect2372"
       style="opacity:1;fill:#003f46;fill-opacity:1;stroke:none;stroke-width:0.5219152;stroke-linecap:square;stroke-linejoin:miter;stroke-miterlimit:4;stroke-dasharray:none;stroke-dashoffset:0;stroke-opacity:1"
       transform="rotate(90)"
       inkscape:export-xdpi="299.97321"
       inkscape:export-ydpi="299.97321" />
    <rect
       transform="scale(-1)"
       style="opacity:1;fill:#003f46;fill-opacity:1;stroke:none;stroke-width:1.56412971;stroke-linecap:square;stroke-linejoin:miter;stroke-miterlimit:4;stroke-dasharray:none;stroke-dashoffset:0;stroke-opacity:1"
       id="rect2376"
       width="7.9375"
       height="0.62465984"
       x="327.09708"
       y="119.38398"
       inkscape:export-xdpi="299.97321"
       inkscape:export-ydpi="299.97321" />
    <rect
       y="318.42468"
       x="145.49207"
       height="0.62465984"
       width="7.9375"
       id="rect2380"
       style="opacity:1;fill:#003f46;fill-opacity:1;stroke:none;stroke-width:1.56412971;stroke-linecap:square;stroke-linejoin:miter;stroke-miterlimit:4;stroke-dasharray:none;stroke-dashoffset:0;stroke-opacity:1"
       transform="rotate(135)"
       inkscape:export-xdpi="299.97321"
       inkscape:export-ydpi="299.97321" />
    <rect
       y="105.10937"
       x="327.09708"
       height="0.62465984"
       width="7.9375"
       id="rect2384"
       style="opacity:1;fill:#003f46;fill-opacity:1;stroke:none;stroke-width:1.56412971;stroke-linecap:square;stroke-linejoin:miter;stroke-miterlimit:4;stroke-dasharray:none;stroke-dashoffset:0;stroke-opacity:1"
       transform="scale(-1)"
       inkscape:export-xdpi="299.97321"
       inkscape:export-ydpi="299.97321" />
    <rect
       transform="rotate(135)"
       style="opacity:1;fill:#003f46;fill-opacity:1;stroke:none;stroke-width:1.56412971;stroke-linecap:square;stroke-linejoin:miter;stroke-miterlimit:4;stroke-dasharray:none;stroke-dashoffset:0;stroke-opacity:1"
       id="rect2386"
       width="7.9375"
       height="0.62465984"
       x="155.58575"
       y="308.33105"
       inkscape:export-xdpi="299.97321"
       inkscape:export-ydpi="299.97321" />
    <flowRoot
       xml:space="preserve"
       id="flowRoot2388"
       style="font-style:normal;font-weight:normal;font-size:40px;line-height:1.25;font-family:sans-serif;letter-spacing:0px;word-spacing:0px;fill:#003f46;fill-opacity:1;stroke:none"
       transform="matrix(0,-0.84474537,0.84474537,0,21.730563,-1144.8309)"
       inkscape:export-xdpi="299.97321"
       inkscape:export-ydpi="299.97321"><flowRegion
         id="flowRegion2390"
         style="fill:#003f46;fill-opacity:1"><rect
           id="rect2392"
           width="93.944183"
           height="78.286819"
           x="-1231.6285"
           y="-436.14569"
           style="fill:#003f46;fill-opacity:1" /></flowRegion><flowPara
         id="flowPara2394"
         style="font-style:normal;font-variant:normal;font-weight:normal;font-stretch:normal;font-size:16px;font-family:monospace;-inkscape-font-specification:monospace;fill:#003f46;fill-opacity:1">sr</flowPara></flowRoot>    <rect
       style="opacity:1;fill:#000000;fill-opacity:0.47887328;stroke:#1a1a1a;stroke-width:1.773;stroke-linecap:square;stroke-linejoin:miter;stroke-miterlimit:4;stroke-dasharray:none;stroke-dashoffset:0;stroke-opacity:1"
       id="rect815"
       width="34.017857"
       height="68.980659"
       x="-372.11755"
       y="25.802082"
       ry="0"
       inkscape:export-xdpi="299.97321"
       inkscape:export-ydpi="299.97321" />
    <rect
       y="-136.04817"
       x="-377.77985"
       height="0.20843506"
       width="45.342438"
       id="rect2372-0"
       style="opacity:1;fill:#003f46;fill-opacity:1;stroke:none;stroke-width:0.5219152;stroke-linecap:square;stroke-linejoin:miter;stroke-miterlimit:4;stroke-dasharray:none;stroke-dashoffset:0;stroke-opacity:1"
       inkscape:export-xdpi="299.97321"
       inkscape:export-ydpi="299.97321" />
    <rect
       transform="rotate(90)"
       style="opacity:1;fill:#003f46;fill-opacity:1;stroke:none;stroke-width:1.56412971;stroke-linecap:square;stroke-linejoin:miter;stroke-miterlimit:4;stroke-dasharray:none;stroke-dashoffset:0;stroke-opacity:1"
       id="rect2376-4"
       width="7.9375"
       height="0.62465984"
       x="-139.9127"
       y="371.90948"
       inkscape:export-xdpi="299.97321"
       inkscape:export-ydpi="299.97321" />
    <rect
       y="166.76128"
       x="-363.29617"
       height="0.62465984"
       width="7.9375"
       id="rect2380-8"
       style="opacity:1;fill:#003f46;fill-opacity:1;stroke:none;stroke-width:1.56412971;stroke-linecap:square;stroke-linejoin:miter;stroke-miterlimit:4;stroke-dasharray:none;stroke-dashoffset:0;stroke-opacity:1"
       transform="rotate(45)"
       inkscape:export-xdpi="299.97321"
       inkscape:export-ydpi="299.97321" />
    <rect
       y="337.68314"
       x="-139.9127"
       height="0.62465984"
       width="7.9375"
       id="rect2384-8"
       style="opacity:1;fill:#003f46;fill-opacity:1;stroke:none;stroke-width:1.56412971;stroke-linecap:square;stroke-linejoin:miter;stroke-miterlimit:4;stroke-dasharray:none;stroke-dashoffset:0;stroke-opacity:1"
       transform="rotate(90)"
       inkscape:export-xdpi="299.97321"
       inkscape:export-ydpi="299.97321" />
    <rect
       transform="rotate(45)"
       style="opacity:1;fill:#003f46;fill-opacity:1;stroke:none;stroke-width:1.56412971;stroke-linecap:square;stroke-linejoin:miter;stroke-miterlimit:4;stroke-dasharray:none;stroke-dashoffset:0;stroke-opacity:1"
       id="rect2386-8"
       width="7.9375"
       height="0.62465984"
       x="-339.09454"
       y="142.55968"
       inkscape:export-xdpi="299.97321"
       inkscape:export-ydpi="299.97321" />
    <flowRoot
       xml:space="preserve"
       id="flowRoot2388-9"
       style="font-style:normal;font-weight:normal;font-size:40px;line-height:1.25;font-family:sans-serif;letter-spacing:0px;word-spacing:0px;fill:#003f46;fill-opacity:1;stroke:none"
       transform="matrix(0.84474679,0,0,0.84474679,672.71393,202.54991)"
       inkscape:export-xdpi="299.97321"
       inkscape:export-ydpi="299.97321"><flowRegion
         id="flowRegion2390-7"
         style="fill:#003f46;fill-opacity:1"><rect
           id="rect2392-7"
           width="93.944183"
           height="78.286819"
           x="-1231.6285"
           y="-436.14569"
           style="fill:#003f46;fill-opacity:1" /></flowRegion><flowPara
         id="flowPara2394-6"
         style="font-style:normal;font-variant:normal;font-weight:normal;font-stretch:normal;font-size:15.97789764px;font-family:monospace;-inkscape-font-specification:monospace;fill:#003f46;fill-opacity:1">csx</flowPara></flowRoot>    <rect
       style="opacity:1;fill:#003f46;fill-opacity:1;stroke:none;stroke-width:0.5219152;stroke-linecap:square;stroke-linejoin:miter;stroke-miterlimit:4;stroke-dasharray:none;stroke-dashoffset:0;stroke-opacity:1"
       id="rect2448"
       width="163.90123"
       height="0.26228708"
       x="-31.255516"
       y="-387.63181"
       transform="rotate(-90)"
       inkscape:export-xdpi="299.97321"
       inkscape:export-ydpi="299.97321" />
    <rect
       y="25.385584"
       x="-391.44254"
       height="0.62467009"
       width="7.9376302"
       id="rect2450"
       style="opacity:1;fill:#003f46;fill-opacity:1;stroke:none;stroke-width:1.56415534;stroke-linecap:square;stroke-linejoin:miter;stroke-miterlimit:4;stroke-dasharray:none;stroke-dashoffset:0;stroke-opacity:1"
       inkscape:export-xdpi="299.97321"
       inkscape:export-ydpi="299.97321" />
    <rect
       transform="rotate(-45)"
       style="opacity:1;fill:#003f46;fill-opacity:1;stroke:none;stroke-width:1.56415534;stroke-linecap:square;stroke-linejoin:miter;stroke-miterlimit:4;stroke-dasharray:none;stroke-dashoffset:0;stroke-opacity:1"
       id="rect2452"
       width="7.9376302"
       height="0.62467009"
       x="-296.12521"
       y="-256.12653"
       inkscape:export-xdpi="299.97321"
       inkscape:export-ydpi="299.97321" />
    <rect
       style="opacity:1;fill:#003f46;fill-opacity:1;stroke:none;stroke-width:1.56415534;stroke-linecap:square;stroke-linejoin:miter;stroke-miterlimit:4;stroke-dasharray:none;stroke-dashoffset:0;stroke-opacity:1"
       id="rect2454"
       width="7.9376302"
       height="0.62467009"
       x="-391.44254"
       y="-127.39993"
       inkscape:export-xdpi="299.97321"
       inkscape:export-ydpi="299.97321" />
    <rect
       y="-364.1622"
       x="-188.08958"
       height="0.62467009"
       width="7.9376302"
       id="rect2456"
       style="opacity:1;fill:#003f46;fill-opacity:1;stroke:none;stroke-width:1.56415534;stroke-linecap:square;stroke-linejoin:miter;stroke-miterlimit:4;stroke-dasharray:none;stroke-dashoffset:0;stroke-opacity:1"
       transform="rotate(-45)"
       inkscape:export-xdpi="299.97321"
       inkscape:export-ydpi="299.97321" />
    <flowRoot
       transform="matrix(0,-0.43652888,0.43652888,0,-214.13021,-578.0816)"
       style="font-style:normal;font-weight:normal;font-size:40px;line-height:1.25;font-family:sans-serif;letter-spacing:0px;word-spacing:0px;fill:#003f46;fill-opacity:1;stroke:none"
       id="flowRoot2464"
       xml:space="preserve"
       inkscape:export-xdpi="299.97321"
       inkscape:export-ydpi="299.97321"><flowRegion
         style="fill:#003f46;fill-opacity:1"
         id="flowRegion2460"><rect
           style="fill:#003f46;fill-opacity:1"
           y="-436.14569"
           x="-1231.6285"
           height="78.286819"
           width="93.944183"
           id="rect2458" /></flowRegion><flowPara
         style="font-style:normal;font-variant:normal;font-weight:normal;font-stretch:normal;font-size:29.33333397px;font-family:monospace;-inkscape-font-specification:monospace;fill:#003f46;fill-opacity:1"
         id="flowPara2462">rout</flowPara></flowRoot>    <rect
       transform="scale(-1)"
       style="opacity:1;fill:#003f46;fill-opacity:1;stroke:none;stroke-width:0.5219152;stroke-linecap:square;stroke-linejoin:miter;stroke-miterlimit:4;stroke-dasharray:none;stroke-dashoffset:0;stroke-opacity:1"
       id="rect2472"
       width="25.657866"
       height="0.20843656"
       x="186.91229"
       y="-17.094921"
       inkscape:export-xdpi="299.97321"
       inkscape:export-ydpi="299.97321" />
    <rect
       y="-192.91631"
       x="-20.95945"
       height="0.62465984"
       width="7.9375"
       id="rect2474"
       style="opacity:1;fill:#003f46;fill-opacity:1;stroke:none;stroke-width:1.56412971;stroke-linecap:square;stroke-linejoin:miter;stroke-miterlimit:4;stroke-dasharray:none;stroke-dashoffset:0;stroke-opacity:1"
       transform="rotate(-90)"
       inkscape:export-xdpi="299.97321"
       inkscape:export-ydpi="299.97321" />
    <rect
       transform="rotate(-135)"
       style="opacity:1;fill:#003f46;fill-opacity:1;stroke:none;stroke-width:1.56412971;stroke-linecap:square;stroke-linejoin:miter;stroke-miterlimit:4;stroke-dasharray:none;stroke-dashoffset:0;stroke-opacity:1"
       id="rect2476"
       width="7.9375"
       height="0.62465984"
       x="120.20859"
       y="-148.51805"
       inkscape:export-xdpi="299.97321"
       inkscape:export-ydpi="299.97321" />
    <rect
       transform="rotate(-90)"
       style="opacity:1;fill:#003f46;fill-opacity:1;stroke:none;stroke-width:1.56412971;stroke-linecap:square;stroke-linejoin:miter;stroke-miterlimit:4;stroke-dasharray:none;stroke-dashoffset:0;stroke-opacity:1"
       id="rect2478"
       width="7.9375"
       height="0.62465984"
       x="-20.95945"
       y="-207.19089"
       inkscape:export-xdpi="299.97321"
       inkscape:export-ydpi="299.97321" />
    <rect
       y="-158.61168"
       x="130.30229"
       height="0.62465984"
       width="7.9375"
       id="rect2480"
       style="opacity:1;fill:#003f46;fill-opacity:1;stroke:none;stroke-width:1.56412971;stroke-linecap:square;stroke-linejoin:miter;stroke-miterlimit:4;stroke-dasharray:none;stroke-dashoffset:0;stroke-opacity:1"
       transform="rotate(-135)"
       inkscape:export-xdpi="299.97321"
       inkscape:export-ydpi="299.97321" />
    <flowRoot
       transform="matrix(0.26458333,0,0,0.26458333,120.29757,117.71719)"
       style="font-style:normal;font-weight:normal;font-size:40px;line-height:1.25;font-family:sans-serif;letter-spacing:0px;word-spacing:0px;fill:#003f46;fill-opacity:1;stroke:none"
       id="flowRoot2488"
       xml:space="preserve"
       inkscape:export-xdpi="299.97321"
       inkscape:export-ydpi="299.97321"><flowRegion
         style="fill:#003f46;fill-opacity:1"
         id="flowRegion2484"><rect
           style="fill:#003f46;fill-opacity:1"
           y="-436.14569"
           x="-1231.6285"
           height="78.286819"
           width="93.944183"
           id="rect2482" /></flowRegion><flowPara
         style="font-style:normal;font-variant:normal;font-weight:normal;font-stretch:normal;font-size:48px;font-family:monospace;-inkscape-font-specification:monospace;fill:#003f46;fill-opacity:1"
         id="flowPara2486">sr</flowPara></flowRoot>    <rect
       y="115.92046"
       x="-343.55319"
       height="0.26228708"
       width="163.90123"
       id="rect2496"
       style="opacity:1;fill:#003f46;fill-opacity:1;stroke:none;stroke-width:0.5219152;stroke-linecap:square;stroke-linejoin:miter;stroke-miterlimit:4;stroke-dasharray:none;stroke-dashoffset:0;stroke-opacity:1"
       inkscape:export-xdpi="299.97321"
       inkscape:export-ydpi="299.97321" />
    <rect
       style="opacity:1;fill:#003f46;fill-opacity:1;stroke:none;stroke-width:1.56412971;stroke-linecap:square;stroke-linejoin:miter;stroke-miterlimit:4;stroke-dasharray:none;stroke-dashoffset:0;stroke-opacity:1"
       id="rect2498"
       width="7.9375"
       height="0.62465984"
       x="112.10981"
       y="337.68329"
       transform="rotate(90)"
       inkscape:export-xdpi="299.97321"
       inkscape:export-ydpi="299.97321" />
    <rect
       y="320.76642"
       x="-160.88776"
       height="0.62465984"
       width="7.9375"
       id="rect2500"
       style="opacity:1;fill:#003f46;fill-opacity:1;stroke:none;stroke-width:1.56412971;stroke-linecap:square;stroke-linejoin:miter;stroke-miterlimit:4;stroke-dasharray:none;stroke-dashoffset:0;stroke-opacity:1"
       transform="rotate(45)"
       inkscape:export-xdpi="299.97321"
       inkscape:export-ydpi="299.97321" />
    <rect
       y="184.89769"
       x="112.10981"
       height="0.62465984"
       width="7.9375"
       id="rect2502"
       style="opacity:1;fill:#003f46;fill-opacity:1;stroke:none;stroke-width:1.56412971;stroke-linecap:square;stroke-linejoin:miter;stroke-miterlimit:4;stroke-dasharray:none;stroke-dashoffset:0;stroke-opacity:1"
       transform="rotate(90)"
       inkscape:export-xdpi="299.97321"
       inkscape:export-ydpi="299.97321" />
    <rect
       transform="rotate(45)"
       style="opacity:1;fill:#003f46;fill-opacity:1;stroke:none;stroke-width:1.56412971;stroke-linecap:square;stroke-linejoin:miter;stroke-miterlimit:4;stroke-dasharray:none;stroke-dashoffset:0;stroke-opacity:1"
       id="rect2504"
       width="7.9375"
       height="0.62465984"
       x="-52.852051"
       y="212.73087"
       inkscape:export-xdpi="299.97321"
       inkscape:export-ydpi="299.97321" />
    <flowRoot
       xml:space="preserve"
       id="flowRoot2512"
       style="font-style:normal;font-weight:normal;font-size:40px;line-height:1.25;font-family:sans-serif;letter-spacing:0px;word-spacing:0px;fill:#003f46;fill-opacity:1;stroke:none"
       transform="matrix(0.26458333,0,0,0.26458333,60.278569,217.68892)"
       inkscape:export-xdpi="299.97321"
       inkscape:export-ydpi="299.97321"><flowRegion
         id="flowRegion2508"
         style="fill:#003f46;fill-opacity:1"><rect
           id="rect2506"
           width="386.55209"
           height="163.63077"
           x="-1231.6285"
           y="-436.14569"
           style="fill:#003f46;fill-opacity:1" /></flowRegion><flowPara
         id="flowPara2510"
         style="font-style:normal;font-variant:normal;font-weight:normal;font-stretch:normal;font-size:48px;font-family:monospace;-inkscape-font-specification:monospace;fill:#003f46;fill-opacity:1">rout</flowPara></flowRoot>    <rect
       style="opacity:1;fill:#003f46;fill-opacity:1;stroke:none;stroke-width:0.5219152;stroke-linecap:square;stroke-linejoin:miter;stroke-miterlimit:4;stroke-dasharray:none;stroke-dashoffset:0;stroke-opacity:1"
       id="rect2518"
       width="80.300453"
       height="0.36913392"
       x="20.1516"
       y="172.00819"
       transform="rotate(90)"
       inkscape:export-xdpi="299.97321"
       inkscape:export-ydpi="299.97321" />
    <rect
       y="-26.021967"
       x="168.14366"
       height="0.62465984"
       width="7.9375"
       id="rect2520"
       style="opacity:1;fill:#003f46;fill-opacity:1;stroke:none;stroke-width:1.56412971;stroke-linecap:square;stroke-linejoin:miter;stroke-miterlimit:4;stroke-dasharray:none;stroke-dashoffset:0;stroke-opacity:1"
       transform="scale(-1)"
       inkscape:export-xdpi="299.97321"
       inkscape:export-ydpi="299.97321" />
    <rect
       transform="rotate(135)"
       style="opacity:1;fill:#003f46;fill-opacity:1;stroke:none;stroke-width:1.56412971;stroke-linecap:square;stroke-linejoin:miter;stroke-miterlimit:4;stroke-dasharray:none;stroke-dashoffset:0;stroke-opacity:1"
       id="rect2522"
       width="7.9375"
       height="0.62465984"
       x="135.9126"
       y="103.21001"
       inkscape:export-xdpi="299.97321"
       inkscape:export-ydpi="299.97321" />
    <rect
       transform="scale(-1)"
       style="opacity:1;fill:#003f46;fill-opacity:1;stroke:none;stroke-width:1.56412971;stroke-linecap:square;stroke-linejoin:miter;stroke-miterlimit:4;stroke-dasharray:none;stroke-dashoffset:0;stroke-opacity:1"
       id="rect2524"
       width="7.9375"
       height="0.62465984"
       x="168.14366"
       y="-95.208015"
       inkscape:export-xdpi="299.97321"
       inkscape:export-ydpi="299.97321" />
    <rect
       y="54.288151"
       x="184.83447"
       height="0.62465984"
       width="7.9375"
       id="rect2526"
       style="opacity:1;fill:#003f46;fill-opacity:1;stroke:none;stroke-width:1.56412971;stroke-linecap:square;stroke-linejoin:miter;stroke-miterlimit:4;stroke-dasharray:none;stroke-dashoffset:0;stroke-opacity:1"
       transform="rotate(135)"
       inkscape:export-xdpi="299.97321"
       inkscape:export-ydpi="299.97321" />
    <flowRoot
       transform="matrix(0,-0.26458333,0.26458333,0,-57.050754,-258.31955)"
       style="font-style:normal;font-weight:normal;font-size:40px;line-height:1.25;font-family:sans-serif;letter-spacing:0px;word-spacing:0px;fill:#003f46;fill-opacity:1;stroke:none"
       id="flowRoot2534"
       xml:space="preserve"
       inkscape:export-xdpi="299.97321"
       inkscape:export-ydpi="299.97321"><flowRegion
         style="fill:#003f46;fill-opacity:1"
         id="flowRegion2530"><rect
           style="fill:#003f46;fill-opacity:1"
           y="-436.14569"
           x="-1231.6285"
           height="78.286819"
           width="93.944183"
           id="rect2528" /></flowRegion><flowPara
         style="font-style:normal;font-variant:normal;font-weight:normal;font-stretch:normal;font-size:48px;font-family:monospace;-inkscape-font-specification:monospace;fill:#003f46;fill-opacity:1"
         id="flowPara2532">csy</flowPara></flowRoot>    <rect
       y="321.10126"
       x="-10.971944"
       height="0.20843506"
       width="42.434586"
       id="rect2372-5"
       style="opacity:1;fill:#003f46;fill-opacity:1;stroke:none;stroke-width:0.5219152;stroke-linecap:square;stroke-linejoin:miter;stroke-miterlimit:4;stroke-dasharray:none;stroke-dashoffset:0;stroke-opacity:1"
       transform="rotate(90)"
       inkscape:export-xdpi="299.97321"
       inkscape:export-ydpi="299.97321" />
    <rect
       transform="scale(-1)"
       style="opacity:1;fill:#003f46;fill-opacity:1;stroke:none;stroke-width:1.56415534;stroke-linecap:square;stroke-linejoin:miter;stroke-miterlimit:4;stroke-dasharray:none;stroke-dashoffset:0;stroke-opacity:1"
       id="rect2376-40"
       width="7.9376302"
       height="0.62467009"
       x="317.23666"
       y="4.9680257"
       inkscape:export-xdpi="299.97321"
       inkscape:export-ydpi="299.97321" />
    <rect
       y="230.54802"
       x="219.42407"
       height="0.62467009"
       width="7.9376302"
       id="rect2380-5"
       style="opacity:1;fill:#003f46;fill-opacity:1;stroke:none;stroke-width:1.56415534;stroke-linecap:square;stroke-linejoin:miter;stroke-miterlimit:4;stroke-dasharray:none;stroke-dashoffset:0;stroke-opacity:1"
       transform="rotate(135)"
       inkscape:export-xdpi="299.97321"
       inkscape:export-ydpi="299.97321" />
    <rect
       y="-26.216881"
       x="317.23666"
       height="0.62467009"
       width="7.9376302"
       id="rect2384-9"
       style="opacity:1;fill:#003f46;fill-opacity:1;stroke:none;stroke-width:1.56415534;stroke-linecap:square;stroke-linejoin:miter;stroke-miterlimit:4;stroke-dasharray:none;stroke-dashoffset:0;stroke-opacity:1"
       transform="scale(-1)"
       inkscape:export-xdpi="299.97321"
       inkscape:export-ydpi="299.97321" />
    <rect
       transform="rotate(135)"
       style="opacity:1;fill:#003f46;fill-opacity:1;stroke:none;stroke-width:1.56415534;stroke-linecap:square;stroke-linejoin:miter;stroke-miterlimit:4;stroke-dasharray:none;stroke-dashoffset:0;stroke-opacity:1"
       id="rect2386-4"
       width="7.9376302"
       height="0.62467009"
       x="241.4751"
       y="208.49699"
       inkscape:export-xdpi="299.97321"
       inkscape:export-ydpi="299.97321" />
    <rect
       y="-105.59164"
       x="301.11899"
       height="0.20843506"
       width="42.434586"
       id="rect2372-5-4"
       style="opacity:1;fill:#003f46;fill-opacity:1;stroke:none;stroke-width:0.5219152;stroke-linecap:square;stroke-linejoin:miter;stroke-miterlimit:4;stroke-dasharray:none;stroke-dashoffset:0;stroke-opacity:1"
       transform="scale(-1)"
       inkscape:export-xdpi="299.97321"
       inkscape:export-ydpi="299.97321" />
    <rect
       transform="rotate(-90)"
       style="opacity:1;fill:#003f46;fill-opacity:1;stroke:none;stroke-width:1.56412971;stroke-linecap:square;stroke-linejoin:miter;stroke-miterlimit:4;stroke-dasharray:none;stroke-dashoffset:0;stroke-opacity:1"
       id="rect2376-40-7"
       width="7.9375"
       height="0.62465984"
       x="-109.45618"
       y="-307.12286"
       inkscape:export-xdpi="299.97321"
       inkscape:export-ydpi="299.97321" />
    <rect
       y="-291.85101"
       x="138.38834"
       height="0.62465984"
       width="7.9375"
       id="rect2380-5-7"
       style="opacity:1;fill:#003f46;fill-opacity:1;stroke:none;stroke-width:1.56412971;stroke-linecap:square;stroke-linejoin:miter;stroke-miterlimit:4;stroke-dasharray:none;stroke-dashoffset:0;stroke-opacity:1"
       transform="rotate(-135)"
       inkscape:export-xdpi="299.97321"
       inkscape:export-ydpi="299.97321" />
    <rect
       y="-338.3078"
       x="-109.45618"
       height="0.62465984"
       width="7.9375"
       id="rect2384-9-5"
       style="opacity:1;fill:#003f46;fill-opacity:1;stroke:none;stroke-width:1.56412971;stroke-linecap:square;stroke-linejoin:miter;stroke-miterlimit:4;stroke-dasharray:none;stroke-dashoffset:0;stroke-opacity:1"
       transform="rotate(-90)"
       inkscape:export-xdpi="299.97321"
       inkscape:export-ydpi="299.97321" />
    <rect
       transform="rotate(-135)"
       style="opacity:1;fill:#003f46;fill-opacity:1;stroke:none;stroke-width:1.56412971;stroke-linecap:square;stroke-linejoin:miter;stroke-miterlimit:4;stroke-dasharray:none;stroke-dashoffset:0;stroke-opacity:1"
       id="rect2386-4-4"
       width="7.9375"
       height="0.62465984"
       x="160.43933"
       y="-313.90207"
       inkscape:export-xdpi="299.97321"
       inkscape:export-ydpi="299.97321" />
    <flowRoot
       xml:space="preserve"
       id="flowRoot2633"
       style="font-style:normal;font-weight:normal;font-size:40px;line-height:1.25;font-family:sans-serif;letter-spacing:0px;word-spacing:0px;fill:#000000;fill-opacity:1;stroke:none"
       transform="matrix(0.26458333,0,0,0.26458333,-147.17448,16.536459)"
       inkscape:export-xdpi="299.97321"
       inkscape:export-ydpi="299.97321"><flowRegion
         id="flowRegion2635"><rect
           id="rect2637"
           width="1059.5465"
           height="90.734863"
           x="-1277.8571"
           y="1006.5542" /></flowRegion><flowPara
         id="flowPara2639"
         style="font-style:normal;font-variant:normal;font-weight:normal;font-stretch:normal;font-size:53.33333588px;font-family:monospace;-inkscape-font-specification:monospace">[a] Basic shear reinforcement</flowPara></flowRoot>    <rect
       style="opacity:1;fill:none;fill-opacity:1;stroke:#00ff00;stroke-width:1.68032801;stroke-linecap:square;stroke-linejoin:miter;stroke-miterlimit:4;stroke-dasharray:none;stroke-dashoffset:0;stroke-opacity:1"
       id="rect2641"
       width="30.531439"
       height="121.9"
       x="53.942753"
       y="-127.02975"
       ry="0"
       inkscape:export-xdpi="299.97321"
       inkscape:export-ydpi="299.97321" />
    <rect
       ry="0"
       y="125.71455"
       x="53.942753"
       height="121.9"
       width="30.531439"
       id="rect2661"
       style="opacity:1;fill:none;fill-opacity:1;stroke:#00ff00;stroke-width:1.68032801;stroke-linecap:square;stroke-linejoin:miter;stroke-miterlimit:4;stroke-dasharray:none;stroke-dashoffset:0;stroke-opacity:1"
       inkscape:export-xdpi="299.97321"
       inkscape:export-ydpi="299.97321" />
    <rect
       transform="rotate(90)"
       ry="0"
       y="-239.04863"
       x="29.293997"
       height="121.89884"
       width="61.996822"
       id="rect2663"
       style="opacity:1;fill:none;fill-opacity:1;stroke:#00ff00;stroke-width:1.68148434;stroke-linecap:square;stroke-linejoin:miter;stroke-miterlimit:4;stroke-dasharray:none;stroke-dashoffset:0;stroke-opacity:1"
       inkscape:export-xdpi="299.97321"
       inkscape:export-ydpi="299.97321" />
    <rect
       style="opacity:1;fill:none;fill-opacity:1;stroke:#00ff00;stroke-width:1.68148434;stroke-linecap:square;stroke-linejoin:miter;stroke-miterlimit:4;stroke-dasharray:none;stroke-dashoffset:0;stroke-opacity:1"
       id="rect2673"
       width="61.996822"
       height="121.89883"
       x="29.293997"
       y="-100.63167"
       ry="0"
       transform="matrix(0,1,1,0,0,0)"
       inkscape:export-xdpi="299.97321"
       inkscape:export-ydpi="299.97321" />
    <rect
       ry="0"
       y="25.802082"
       x="52.199547"
       height="68.980659"
       width="34.017857"
       id="rect2695"
       style="opacity:1;fill:#000000;fill-opacity:0.47887328;stroke:#1a1a1a;stroke-width:1.773;stroke-linecap:square;stroke-linejoin:miter;stroke-miterlimit:4;stroke-dasharray:none;stroke-dashoffset:0;stroke-opacity:1"
       inkscape:export-xdpi="299.97321"
       inkscape:export-ydpi="299.97321" />
    <flowRoot
       transform="matrix(0.26458333,0,0,0.26458333,314.40251,21.632127)"
       style="font-style:normal;font-weight:normal;font-size:40px;line-height:1.25;font-family:sans-serif;letter-spacing:0px;word-spacing:0px;fill:#000000;fill-opacity:1;stroke:none"
       id="flowRoot2835"
       xml:space="preserve"
       inkscape:export-xdpi="299.97321"
       inkscape:export-ydpi="299.97321"><flowRegion
         id="flowRegion2831"><rect
           y="1006.5542"
           x="-1277.8571"
           height="87.062538"
           width="1106.1185"
           id="rect2829" /></flowRegion><flowPara
         style="font-style:normal;font-variant:normal;font-weight:normal;font-stretch:normal;font-size:53.33333588px;font-family:monospace;-inkscape-font-specification:monospace"
         id="flowPara2833">[b] Diagonal shear reinforcement</flowPara></flowRoot>    <path
       style="opacity:1;fill:none;fill-opacity:0.47887328;stroke:#aaaaaa;stroke-width:0.89999998;stroke-linecap:square;stroke-linejoin:miter;stroke-miterlimit:4;stroke-dasharray:2.69999985, 2.69999985;stroke-dashoffset:0;stroke-opacity:1"
       id="path2837"
       sodipodi:type="arc"
       sodipodi:cx="87.091179"
       sodipodi:cy="24.907282"
       sodipodi:rx="67.41153"
       sodipodi:ry="67.41153"
       sodipodi:start="4.712389"
       sodipodi:end="0"
       d="m 87.09118,-42.504248 a 67.41153,67.41153 0 0 1 67.41153,67.41153 l -67.411531,0 z"
       inkscape:export-xdpi="299.97321"
       inkscape:export-ydpi="299.97321" />
    <rect
       style="opacity:1;fill:#ff6600;fill-opacity:0.47887328;stroke:none;stroke-width:1.98375142;stroke-linecap:square;stroke-linejoin:miter;stroke-miterlimit:4;stroke-dasharray:none;stroke-dashoffset:0;stroke-opacity:1"
       id="rect2843"
       width="2.1462433"
       height="2.1462433"
       x="86.018059"
       y="23.834162"
       inkscape:export-xdpi="299.97321"
       inkscape:export-ydpi="299.97321" />
    <path
       id="circle2845"
       style="opacity:1;fill:none;fill-opacity:0.6126761;stroke:#aaaaaa;stroke-width:0.89999998;stroke-linecap:square;stroke-linejoin:miter;stroke-miterlimit:4;stroke-dasharray:2.69999985, 2.69999985;stroke-dashoffset:0;stroke-opacity:1"
       sodipodi:type="arc"
       sodipodi:cx="87.091179"
       sodipodi:cy="24.907282"
       sodipodi:rx="152.0782"
       sodipodi:ry="152.0782"
       sodipodi:start="4.712389"
       sodipodi:end="0"
       d="M 87.091182,-127.17092 A 152.0782,152.0782 0 0 1 239.16938,24.907282 l -152.078201,0 z"
       inkscape:export-xdpi="299.97321"
       inkscape:export-ydpi="299.97321" />
    <rect
       transform="rotate(150)"
       style="opacity:1;fill:#333333;fill-opacity:1;stroke:#960000;stroke-width:0.5220229;stroke-linecap:square;stroke-linejoin:miter;stroke-miterlimit:4;stroke-dasharray:none;stroke-dashoffset:0;stroke-opacity:1"
       id="rect2472-6"
       width="77.257812"
       height="0.24200116"
       x="-134.47939"
       y="-65.313919"
       inkscape:export-xdpi="299.97321"
       inkscape:export-ydpi="299.97321" />
    <rect
       y="128.68471"
       x="-66.506699"
       height="0.20843506"
       width="2.6485667"
       id="rect2474-8"
       style="opacity:1;fill:#003f46;fill-opacity:1;stroke:none;stroke-width:0.5219152;stroke-linecap:square;stroke-linejoin:miter;stroke-miterlimit:4;stroke-dasharray:none;stroke-dashoffset:0;stroke-opacity:1"
       transform="rotate(-120)"
       inkscape:export-xdpi="299.97321"
       inkscape:export-ydpi="299.97321" />
    <rect
       transform="rotate(-165)"
       style="opacity:1;fill:#003f46;fill-opacity:1;stroke:none;stroke-width:0.5219152;stroke-linecap:square;stroke-linejoin:miter;stroke-miterlimit:4;stroke-dasharray:none;stroke-dashoffset:0;stroke-opacity:1"
       id="rect2476-0"
       width="2.6485667"
       height="0.20843506"
       x="-138.48277"
       y="44.872433"
       inkscape:export-xdpi="299.97321"
       inkscape:export-ydpi="299.97321" />
    <rect
       transform="rotate(-120)"
       style="opacity:1;fill:#003f46;fill-opacity:1;stroke:none;stroke-width:0.5219152;stroke-linecap:square;stroke-linejoin:miter;stroke-miterlimit:4;stroke-dasharray:none;stroke-dashoffset:0;stroke-opacity:1"
       id="rect2478-2"
       width="2.6485667"
       height="0.20843506"
       x="-66.50042"
       y="62.808971"
       inkscape:export-xdpi="299.97321"
       inkscape:export-ydpi="299.97321" />
    <rect
       y="-1.7043175"
       x="-91.897095"
       height="0.20843506"
       width="2.6485667"
       id="rect2480-1"
       style="opacity:1;fill:#003f46;fill-opacity:1;stroke:none;stroke-width:0.5219152;stroke-linecap:square;stroke-linejoin:miter;stroke-miterlimit:4;stroke-dasharray:none;stroke-dashoffset:0;stroke-opacity:1"
       transform="rotate(-165)"
       inkscape:export-xdpi="299.97321"
       inkscape:export-ydpi="299.97321" />
    <flowRoot
       transform="matrix(0.22913589,-0.13229167,0.13229167,0.22913589,447.31219,-62.613977)"
       style="font-style:normal;font-weight:normal;font-size:40px;line-height:1.25;font-family:sans-serif;letter-spacing:0px;word-spacing:0px;fill:#003f46;fill-opacity:1;stroke:none"
       id="flowRoot2488-0"
       xml:space="preserve"
       inkscape:export-xdpi="299.97321"
       inkscape:export-ydpi="299.97321"><flowRegion
         style="fill:#003f46;fill-opacity:1"
         id="flowRegion2484-5"><rect
           style="fill:#003f46;fill-opacity:1"
           y="-436.14569"
           x="-1231.6285"
           height="78.286819"
           width="93.944183"
           id="rect2482-1" /></flowRegion><flowPara
         style="font-style:normal;font-variant:normal;font-weight:normal;font-stretch:normal;font-size:48px;font-family:sans-serif;-inkscape-font-specification:sans-serif;fill:#003f46;fill-opacity:1"
         id="flowPara2486-1">r0</flowPara></flowRoot>    <path
       style="opacity:0.61400003;fill:#960046;fill-opacity:1;stroke:none;stroke-width:0.26458332px;stroke-linecap:butt;stroke-linejoin:miter;stroke-opacity:1"
       d="m 149.12111,-10.67417 -4.83948,2.7972312 0.59646,1.0268517 4.24302,-3.8240829"
       id="path2909"
       inkscape:connector-curvature="0"
       sodipodi:nodetypes="cccc"
       inkscape:export-xdpi="299.97321"
       inkscape:export-ydpi="299.97321" />
    <flowRoot
       xml:space="preserve"
       id="flowRoot4660"
       style="font-style:normal;font-weight:normal;font-size:40px;line-height:1.25;font-family:sans-serif;letter-spacing:0px;word-spacing:0px;fill:#000000;fill-opacity:1;stroke:none"
       transform="scale(0.26458333)"><flowRegion
         id="flowRegion4662"><rect
           id="rect4664"
           width="693.75"
           height="556.25"
           x="-1087.5"
           y="1616.2697" /></flowRegion><flowPara
         id="flowPara4666" /></flowRoot>    <g
       id="g1934"
       inkscape:export-xdpi="299.97321"
       inkscape:export-ydpi="299.97321">
      <path
         sodipodi:nodetypes="cc"
         inkscape:connector-curvature="0"
         id="path5004"
         d="m 123.61255,-130.36713 25.52307,8.87769"
         style="fill:none;stroke:#2b3b3a;stroke-width:0.52916667;stroke-linecap:butt;stroke-linejoin:miter;stroke-miterlimit:4;stroke-dasharray:none;stroke-opacity:1;marker-start:url(#marker5088);marker-end:url(#StopL)" />
      <text
         transform="rotate(18.551891)"
         id="text6142"
         y="-167.7953"
         x="83.032524"
         style="font-style:normal;font-weight:normal;font-size:9.17222214px;line-height:1.25;font-family:sans-serif;letter-spacing:0px;word-spacing:0px;fill:#2b3b3a;fill-opacity:1;stroke:none;stroke-width:0.26458332"
         xml:space="preserve"><tspan
           style="fill:#2b3b3a;fill-opacity:1;stroke-width:0.26458332;font-size:12.7px"
           y="-167.7953"
           x="83.032524"
           id="tspan6140"
           sodipodi:role="line">cs</tspan></text>
    </g>
    <circle
       r="3.6173501"
       cy="-18.840876"
       cx="190.4469"
       id="path9013"
       style="fill:#2b3b3a;fill-opacity:1;stroke:#2b3b3a;stroke-width:0.26499999;stroke-miterlimit:4;stroke-dasharray:none;stroke-opacity:1"
       inkscape:export-xdpi="299.97321"
       inkscape:export-ydpi="299.97321" />
    <circle
       r="3.6173503"
       cy="-4.6014819"
       cx="196.17613"
       id="path9013-6"
       style="fill:#2b3b3a;fill-opacity:1;stroke:#2b3b3a;stroke-width:0.26499999;stroke-miterlimit:4;stroke-dasharray:none;stroke-opacity:1"
       inkscape:export-xdpi="299.97321"
       inkscape:export-ydpi="299.97321" />
    <circle
       r="3.6173503"
       cy="11.814191"
       cx="199.0173"
       id="path9013-6-0"
       style="fill:#2b3b3a;fill-opacity:1;stroke:#2b3b3a;stroke-width:0.26499999;stroke-miterlimit:4;stroke-dasharray:none;stroke-opacity:1"
       inkscape:export-xdpi="299.97321"
       inkscape:export-ydpi="299.97321" />
    <flowRoot
       transform="matrix(0.26458333,0,0,0.26458333,25.351958,52.463758)"
       style="font-style:normal;font-weight:normal;font-size:34.66666794px;line-height:1.25;font-family:sans-serif;letter-spacing:0px;word-spacing:0px;fill:#2b3b3a;fill-opacity:1;stroke:none"
       id="flowRoot9045"
       xml:space="preserve"
       inkscape:export-xdpi="299.97321"
       inkscape:export-ydpi="299.97321"><flowRegion
         id="flowRegion9047"
         style="fill:#2b3b3a;fill-opacity:1"><rect
           y="-287.27448"
           x="649.65436"
           height="112.69514"
           width="227.59999"
           id="rect9049"
           style="fill:#2b3b3a;fill-opacity:1" /></flowRegion><flowPara
         id="flowPara9051"
         style="font-size:48px;fill:#2b3b3a;fill-opacity:1">n cages</flowPara><flowPara
         id="flowPara9053" /></flowRoot>    <rect
       id="rect180"
       width="26.632067"
       height="85.532959"
       x="77.309708"
       y="-155.27568"
       style="fill:none;stroke:#2b3b3a;stroke-width:1.05833328;stroke-miterlimit:4;stroke-dasharray:none;stroke-opacity:1"
       transform="rotate(18.100664)"
       inkscape:export-xdpi="299.97321"
       inkscape:export-ydpi="299.97321" />
    <rect
       id="rect180-3"
       width="26.594366"
       height="83.661499"
       x="62.038525"
       y="-205.29416"
       style="fill:none;stroke:#2b3b3a;stroke-width:1.05833328;stroke-miterlimit:4;stroke-dasharray:none;stroke-opacity:1"
       transform="rotate(52.494373)"
       inkscape:export-xdpi="299.97321"
       inkscape:export-ydpi="299.97321" />
    <g
       transform="rotate(24.364454,-120.10363,-99.465412)"
       id="g1934-5"
       inkscape:export-xdpi="299.97321"
       inkscape:export-ydpi="299.97321">
      <path
         sodipodi:nodetypes="cc"
         inkscape:connector-curvature="0"
         id="path5004-6"
         d="m 126.33209,-128.79081 13.23557,2.64907"
         style="fill:none;stroke:#2b3b3a;stroke-width:0.5291667;stroke-linecap:butt;stroke-linejoin:miter;stroke-miterlimit:4;stroke-dasharray:none;stroke-opacity:1;marker-start:url(#marker5088-6);marker-end:url(#StopL-5)" />
      <text
         transform="rotate(12.619021)"
         id="text6142-2"
         y="-156.116"
         x="96.483925"
         style="font-style:normal;font-weight:normal;font-size:9.17222214px;line-height:1.25;font-family:sans-serif;letter-spacing:0px;word-spacing:0px;fill:#2b3b3a;fill-opacity:1;stroke:none;stroke-width:0.26458332"
         xml:space="preserve"><tspan
           style="fill:#2b3b3a;fill-opacity:1;stroke-width:0.26458332;font-size:12.7px"
           y="-156.116"
           x="96.483925"
           id="tspan6140-9"
           sodipodi:role="line">st</tspan></text>
    </g>
    <g
       transform="rotate(32.376519,84.871511,39.820307)"
       id="g1934-3"
       inkscape:export-xdpi="299.97321"
       inkscape:export-ydpi="299.97321">
      <path
         sodipodi:nodetypes="cc"
         inkscape:connector-curvature="0"
         id="path5004-60"
         d="m 123.61255,-130.36713 25.52307,8.87769"
         style="fill:none;stroke:#2b3b3a;stroke-width:0.5291667;stroke-linecap:butt;stroke-linejoin:miter;stroke-miterlimit:4;stroke-dasharray:none;stroke-opacity:1;marker-start:url(#marker5088-1);marker-end:url(#StopL-70)" />
      <text
         transform="rotate(18.551891)"
         id="text6142-6"
         y="-167.7953"
         x="83.032524"
         style="font-style:normal;font-weight:normal;font-size:9.17222214px;line-height:1.25;font-family:sans-serif;letter-spacing:0px;word-spacing:0px;fill:#2b3b3a;fill-opacity:1;stroke:none;stroke-width:0.26458332"
         xml:space="preserve"><tspan
           style="fill:#2b3b3a;fill-opacity:1;stroke-width:0.26458332;font-size:12.7px"
           y="-167.7953"
           x="83.032524"
           id="tspan6140-2"
           sodipodi:role="line">cs</tspan></text>
    </g>
    <flowRoot
       xml:space="preserve"
       id="flowRoot1175"
       style="font-style:normal;font-weight:normal;font-size:48px;line-height:1.25;font-family:sans-serif;letter-spacing:0px;word-spacing:0px;fill:#003f46;fill-opacity:1;stroke:none;"
       transform="matrix(0.26458333,0,0,0.26458333,-290.53284,126.45782)"
       inkscape:export-xdpi="299.97321"
       inkscape:export-ydpi="299.97321"><flowRegion
         id="flowRegion1177"
         style="font-size:48px;fill:#003f46;fill-opacity:1;"><rect
           id="rect1179"
           width="556.60107"
           height="199.65034"
           x="738.10126"
           y="-580.55823"
           style="font-size:48px;fill:#003f46;fill-opacity:1;" /></flowRegion><flowPara
         id="flowPara1181">r0min ≤ r0 ≤ r0max</flowPara><flowPara
         id="flowPara1183">n ≥ nmin</flowPara></flowRoot>    <g
       id="g5329"
       transform="translate(-420.58582,-3.3736831)"
       style="fill:#003f46;fill-opacity:1"
       inkscape:export-xdpi="299.97321"
       inkscape:export-ydpi="299.97321">
      <g
         word-spacing="normal"
         letter-spacing="normal"
         font-size-adjust="none"
         font-stretch="normal"
         font-weight="normal"
         font-variant="normal"
         font-style="normal"
         stroke-miterlimit="10.433"
         xml:space="preserve"
         transform="matrix(0.3,0,0,-0.3,-52.5,222.75)"
         id="content"
         style="font-style:normal;font-variant:normal;font-weight:normal;font-stretch:normal;letter-spacing:normal;word-spacing:normal;text-anchor:start;fill:#003f46;fill-opacity:1;fill-rule:evenodd;stroke:#000000;stroke-linecap:butt;stroke-linejoin:miter;stroke-miterlimit:10.43299961;stroke-dasharray:none;stroke-dashoffset:0;stroke-opacity:1"><path
           id="path5318"
           d="m 489.14,435.79 0.11,0.05 0.09,0.05 0.05,0.02 0.05,0.03 0.04,0.02 0.04,0.03 0.05,0.02 0.04,0.03 0.04,0.02 0.04,0.03 0.03,0.03 0.04,0.03 0.03,0.03 0.04,0.03 0.03,0.03 0.03,0.04 0.02,0.03 0.03,0.04 0.02,0.03 0.03,0.04 0.02,0.04 0.02,0.04 0.01,0.04 0.02,0.05 0.01,0.04 0.01,0.05 0.01,0.05 v 0.05 l 0.01,0.05 v 0.06 c 0,0.54 -0.41,1 -1,1 -0.25,0 -0.71,-0.21 -0.89,-0.3 l -27.57,-13 c -0.84,-0.41 -0.98,-0.75 -0.98,-1.16 0,-0.43 0.3,-0.79 0.98,-1.09 l 27.57,-12.95 c 0.64,-0.35 0.75,-0.35 0.89,-0.35 0.54,0 1,0.44 1,1 0,0.44 -0.21,0.74 -1.05,1.14 l -26.06,12.25 z"
           inkscape:connector-curvature="0"
           style="fill:#003f46;stroke-width:0;fill-opacity:1" /><path
           id="path5320"
           d="m 488.35,399.37 h 0.16 0.16 l 0.15,0.01 h 0.08 l 0.08,0.01 h 0.07 l 0.08,0.01 0.07,0.01 0.07,0.01 0.07,0.02 0.07,0.01 0.07,0.02 0.06,0.03 0.06,0.02 0.06,0.03 0.05,0.03 0.06,0.04 0.05,0.03 0.04,0.05 0.04,0.04 0.04,0.05 0.02,0.03 0.02,0.03 0.01,0.03 0.02,0.03 0.01,0.03 0.02,0.03 0.01,0.04 0.01,0.03 0.01,0.04 v 0.04 l 0.01,0.03 0.01,0.04 v 0.05 l 0.01,0.04 v 0.04 0.05 c 0,1 -1.05,1 -1.8,1 h -26.86 c -0.73,0 -1.78,0 -1.78,-1 0,-1 0.89,-1 1.73,-1 z"
           inkscape:connector-curvature="0"
           style="fill:#003f46;stroke-width:0;fill-opacity:1" /><path
           id="path5322"
           d="m 533.97,448.9 v 0.01 0 h 0.01 v 0.01 0 0.01 l 0.01,0.01 v 0 0.01 0.01 l 0.01,0.01 v 0.02 l 0.01,0.02 0.01,0.02 v 0.02 l 0.01,0.02 v 0.02 l 0.01,0.03 0.01,0.02 0.01,0.05 v 0.02 l 0.01,0.02 v 0.03 l 0.01,0.02 v 0.02 l 0.01,0.02 v 0.02 0.02 l 0.01,0.02 v 0.01 0.01 0.01 0 0.01 h 0.01 v 0.01 0 0.01 0 0 0.01 0 c 0,0.19 -0.14,0.5 -0.55,0.5 -0.7,0 -3.59,-0.28 -4.47,-0.36 -0.28,-0.03 -0.76,-0.06 -0.76,-0.8 0,-0.48 0.48,-0.48 0.9,-0.48 1.68,0 1.68,-0.25 1.68,-0.53 0,-0.24 -0.07,-0.46 -0.14,-0.77 l -1.99,-7.94 c -0.73,1.14 -1.92,2.05 -3.59,2.05 v -0.97 c 2.43,0 3.11,-2.64 3.11,-3.03 0,-0.14 -0.08,-0.39 -0.11,-0.48 l -1.64,-6.52 c -0.24,-0.98 -1,-1.67 -1.77,-2.34 -0.31,-0.27 -1.72,-1.39 -3.22,-1.39 -1.28,0 -2.53,0.9 -2.53,3.37 0,1.86 1,5.69 1.81,7.08 1.6,2.8 3.38,3.31 4.35,3.31 v 0.97 c -4.46,0 -8.99,-4.91 -8.99,-9.92 0,-3.38 2.27,-5.78 5.27,-5.78 1.87,0 3.55,1.08 4.94,2.44 0.67,-2.1 2.68,-2.44 3.59,-2.44 1.25,0 2.12,0.76 2.75,1.84 0.77,1.36 1.22,3.35 1.22,3.49 0,0.45 -0.45,0.45 -0.55,0.45 -0.5,0 -0.53,-0.14 -0.76,-1.08 -0.43,-1.67 -1.1,-3.73 -2.55,-3.73 -0.91,0 -1.16,0.76 -1.16,1.7 0,0.67 0.08,0.98 0.17,1.44 z"
           inkscape:connector-curvature="0"
           style="fill:#003f46;stroke-width:0;fill-opacity:1" /><polyline
           id="polyline5324"
           points="514,418 534.76,418 534.76,420.04 514,420.04 "
           style="fill:#003f46;fill-rule:nonzero;stroke-width:0;fill-opacity:1" /><path
           id="path5326"
           d="m 532.15,395.38 h -1.18 c -0.1,-0.76 -0.46,-2.83 -0.91,-3.17 -0.27,-0.2 -2.96,-0.2 -3.44,-0.2 h -6.42 c 3.65,3.23 4.87,4.2 6.97,5.84 2.58,2.06 4.98,4.22 4.98,7.53 0,4.22 -3.68,6.8 -8.15,6.8 -4.32,0 -7.25,-3.03 -7.25,-6.23 0,-1.79 1.5,-1.96 1.85,-1.96 0.83,0 1.85,0.6 1.85,1.85 0,0.62 -0.25,1.84 -2.06,1.84 1.08,2.47 3.45,3.23 5.09,3.23 3.49,0 5.3,-2.7 5.3,-5.53 0,-3.03 -2.16,-5.43 -3.28,-6.68 l -8.4,-8.3 c -0.35,-0.31 -0.35,-0.39 -0.35,-1.36 h 14.35 z"
           inkscape:connector-curvature="0"
           style="fill:#003f46;stroke-width:0;fill-opacity:1" /></g>    </g>
    <g
       id="g5329-3"
       transform="translate(-404.39949,-86.168002)"
       style="fill:#003f46;fill-opacity:1"
       inkscape:export-xdpi="299.97321"
       inkscape:export-ydpi="299.97321">
      <g
         word-spacing="normal"
         letter-spacing="normal"
         font-size-adjust="none"
         font-stretch="normal"
         font-weight="normal"
         font-variant="normal"
         font-style="normal"
         stroke-miterlimit="10.433"
         xml:space="preserve"
         transform="matrix(0.3,0,0,-0.3,-52.5,222.75)"
         id="content-6"
         style="font-style:normal;font-variant:normal;font-weight:normal;font-stretch:normal;letter-spacing:normal;word-spacing:normal;text-anchor:start;fill:#003f46;fill-opacity:1;fill-rule:evenodd;stroke:#000000;stroke-linecap:butt;stroke-linejoin:miter;stroke-miterlimit:10.43299961;stroke-dasharray:none;stroke-dashoffset:0;stroke-opacity:1"><path
           id="path5318-7"
           d="m 489.14,435.79 0.11,0.05 0.09,0.05 0.05,0.02 0.05,0.03 0.04,0.02 0.04,0.03 0.05,0.02 0.04,0.03 0.04,0.02 0.04,0.03 0.03,0.03 0.04,0.03 0.03,0.03 0.04,0.03 0.03,0.03 0.03,0.04 0.02,0.03 0.03,0.04 0.02,0.03 0.03,0.04 0.02,0.04 0.02,0.04 0.01,0.04 0.02,0.05 0.01,0.04 0.01,0.05 0.01,0.05 v 0.05 l 0.01,0.05 v 0.06 c 0,0.54 -0.41,1 -1,1 -0.25,0 -0.71,-0.21 -0.89,-0.3 l -27.57,-13 c -0.84,-0.41 -0.98,-0.75 -0.98,-1.16 0,-0.43 0.3,-0.79 0.98,-1.09 l 27.57,-12.95 c 0.64,-0.35 0.75,-0.35 0.89,-0.35 0.54,0 1,0.44 1,1 0,0.44 -0.21,0.74 -1.05,1.14 l -26.06,12.25 z"
           inkscape:connector-curvature="0"
           style="fill:#003f46;fill-opacity:1;stroke-width:0" /><path
           id="path5320-5"
           d="m 488.35,399.37 h 0.16 0.16 l 0.15,0.01 h 0.08 l 0.08,0.01 h 0.07 l 0.08,0.01 0.07,0.01 0.07,0.01 0.07,0.02 0.07,0.01 0.07,0.02 0.06,0.03 0.06,0.02 0.06,0.03 0.05,0.03 0.06,0.04 0.05,0.03 0.04,0.05 0.04,0.04 0.04,0.05 0.02,0.03 0.02,0.03 0.01,0.03 0.02,0.03 0.01,0.03 0.02,0.03 0.01,0.04 0.01,0.03 0.01,0.04 v 0.04 l 0.01,0.03 0.01,0.04 v 0.05 l 0.01,0.04 v 0.04 0.05 c 0,1 -1.05,1 -1.8,1 h -26.86 c -0.73,0 -1.78,0 -1.78,-1 0,-1 0.89,-1 1.73,-1 z"
           inkscape:connector-curvature="0"
           style="fill:#003f46;fill-opacity:1;stroke-width:0" /><path
           id="path5322-3"
           d="m 533.97,448.9 v 0.01 0 h 0.01 v 0.01 0 0.01 l 0.01,0.01 v 0 0.01 0.01 l 0.01,0.01 v 0.02 l 0.01,0.02 0.01,0.02 v 0.02 l 0.01,0.02 v 0.02 l 0.01,0.03 0.01,0.02 0.01,0.05 v 0.02 l 0.01,0.02 v 0.03 l 0.01,0.02 v 0.02 l 0.01,0.02 v 0.02 0.02 l 0.01,0.02 v 0.01 0.01 0.01 0 0.01 h 0.01 v 0.01 0 0.01 0 0 0.01 0 c 0,0.19 -0.14,0.5 -0.55,0.5 -0.7,0 -3.59,-0.28 -4.47,-0.36 -0.28,-0.03 -0.76,-0.06 -0.76,-0.8 0,-0.48 0.48,-0.48 0.9,-0.48 1.68,0 1.68,-0.25 1.68,-0.53 0,-0.24 -0.07,-0.46 -0.14,-0.77 l -1.99,-7.94 c -0.73,1.14 -1.92,2.05 -3.59,2.05 v -0.97 c 2.43,0 3.11,-2.64 3.11,-3.03 0,-0.14 -0.08,-0.39 -0.11,-0.48 l -1.64,-6.52 c -0.24,-0.98 -1,-1.67 -1.77,-2.34 -0.31,-0.27 -1.72,-1.39 -3.22,-1.39 -1.28,0 -2.53,0.9 -2.53,3.37 0,1.86 1,5.69 1.81,7.08 1.6,2.8 3.38,3.31 4.35,3.31 v 0.97 c -4.46,0 -8.99,-4.91 -8.99,-9.92 0,-3.38 2.27,-5.78 5.27,-5.78 1.87,0 3.55,1.08 4.94,2.44 0.67,-2.1 2.68,-2.44 3.59,-2.44 1.25,0 2.12,0.76 2.75,1.84 0.77,1.36 1.22,3.35 1.22,3.49 0,0.45 -0.45,0.45 -0.55,0.45 -0.5,0 -0.53,-0.14 -0.76,-1.08 -0.43,-1.67 -1.1,-3.73 -2.55,-3.73 -0.91,0 -1.16,0.76 -1.16,1.7 0,0.67 0.08,0.98 0.17,1.44 z"
           inkscape:connector-curvature="0"
           style="fill:#003f46;fill-opacity:1;stroke-width:0" /><polyline
           id="polyline5324-5"
           points="514,418 534.76,418 534.76,420.04 514,420.04 "
           style="fill:#003f46;fill-opacity:1;fill-rule:nonzero;stroke-width:0" /><path
           id="path5326-6"
           d="m 532.15,395.38 h -1.18 c -0.1,-0.76 -0.46,-2.83 -0.91,-3.17 -0.27,-0.2 -2.96,-0.2 -3.44,-0.2 h -6.42 c 3.65,3.23 4.87,4.2 6.97,5.84 2.58,2.06 4.98,4.22 4.98,7.53 0,4.22 -3.68,6.8 -8.15,6.8 -4.32,0 -7.25,-3.03 -7.25,-6.23 0,-1.79 1.5,-1.96 1.85,-1.96 0.83,0 1.85,0.6 1.85,1.85 0,0.62 -0.25,1.84 -2.06,1.84 1.08,2.47 3.45,3.23 5.09,3.23 3.49,0 5.3,-2.7 5.3,-5.53 0,-3.03 -2.16,-5.43 -3.28,-6.68 l -8.4,-8.3 c -0.35,-0.31 -0.35,-0.39 -0.35,-1.36 h 14.35 z"
           inkscape:connector-curvature="0"
           style="fill:#003f46;fill-opacity:1;stroke-width:0" /></g>    </g>
  </g>
</svg>
